[32mINFO    [0m root:mainpage.py:26 点击【通讯录】
[32mINFO    [0m root:base_page.py:27 find_and_click
[32mINFO    [0m root:base_page.py:27 find
[32mINFO    [0m root:base_page.py:27 xpath
[32mINFO    [0m root:base_page.py:27 //*[@text='通讯录']
[32mINFO    [0m root:addresslistpage.py:22 添加成员
[32mINFO    [0m root:base_page.py:27 swipe_find
[32mINFO    [0m root:base_page.py:27 find_and_click
[32mINFO    [0m root:base_page.py:27 find
[32mINFO    [0m root:base_page.py:27 xpath
[32mINFO    [0m root:base_page.py:27 //*[@text='手动输入添加']
[32mINFO    [0m root:base_page.py:27 find_and_sendkeys
[32mINFO    [0m root:base_page.py:27 find
[32mINFO    [0m root:base_page.py:27 xpath
[32mINFO    [0m root:base_page.py:27 //*[contains(@text,'姓名')]/../android.widget.EditText
[32mINFO    [0m root:base_page.py:27 find_and_sendkeys
[32mINFO    [0m root:base_page.py:27 find
[32mINFO    [0m root:base_page.py:27 xpath
[32mINFO    [0m root:base_page.py:27 //*[contains(@text,'手机')]/..//android.widget.EditText
[32mINFO    [0m root:base_page.py:27 find_and_click
[32mINFO    [0m root:base_page.py:27 find
[32mINFO    [0m root:base_page.py:27 xpath
[32mINFO    [0m root:base_page.py:27 //*[@text='保存']
[32mINFO    [0m root:base_page.py:27 find
[32mINFO    [0m root:base_page.py:27 xpath
[32mINFO    [0m root:base_page.py:27 //*[@class='android.widget.Toast']